{
    "properties": [], 
    "externalReferences": [], 
    "innerClasses": [], 
    "interfaces": [], 
    "constructors": [], 
    "namespace": null, 
    "name": "MyProfilePageController", 
    "tableDeclaration": {
        "type": "MyProfilePageController", 
        "modifiers": [
            "public", 
            "with sharing"
        ], 
        "references": [], 
        "location": {
            "column": 27, 
            "line": 5
        }, 
        "name": "MyProfilePageController"
    }, 
    "key": "01p28000004heW8AAI", 
    "variables": [], 
    "id": "01p28000004heW8AAI", 
    "methods": []
}