{
    "properties": [
        {
            "modifiers": [
                "public"
            ], 
            "name": "evId", 
            "visibility": "PUBLIC", 
            "references": [], 
            "location": {
                "column": 19, 
                "line": 12
            }, 
            "type": "String"
        }, 
        {
            "modifiers": [
                "static", 
                "public"
            ], 
            "name": "listevent", 
            "visibility": "PUBLIC", 
            "references": [], 
            "location": {
                "column": 31, 
                "line": 9
            }, 
            "type": "LIST"
        }, 
        {
            "modifiers": [
                "static", 
                "public"
            ], 
            "name": "listeventwrapper", 
            "visibility": "PUBLIC", 
            "references": [], 
            "location": {
                "column": 38, 
                "line": 10
            }, 
            "type": "LIST"
        }, 
        {
            "modifiers": [
                "static", 
                "public"
            ], 
            "name": "Mapcontacts", 
            "visibility": "PUBLIC", 
            "references": [], 
            "location": {
                "column": 36, 
                "line": 11
            }, 
            "type": "Map"
        }
    ], 
    "externalReferences": [], 
    "innerClasses": [
        {
            "properties": [
                {
                    "modifiers": [
                        "public"
                    ], 
                    "name": "eveid", 
                    "visibility": "PUBLIC", 
                    "references": [], 
                    "location": {
                        "column": 23, 
                        "line": 152
                    }, 
                    "type": "String"
                }, 
                {
                    "modifiers": [
                        "public"
                    ], 
                    "name": "Name", 
                    "visibility": "PUBLIC", 
                    "references": [], 
                    "location": {
                        "column": 23, 
                        "line": 153
                    }, 
                    "type": "String"
                }, 
                {
                    "modifiers": [
                        "public"
                    ], 
                    "name": "location", 
                    "visibility": "PUBLIC", 
                    "references": [], 
                    "location": {
                        "column": 23, 
                        "line": 154
                    }, 
                    "type": "String"
                }, 
                {
                    "modifiers": [
                        "public"
                    ], 
                    "name": "Category", 
                    "visibility": "PUBLIC", 
                    "references": [], 
                    "location": {
                        "column": 23, 
                        "line": 155
                    }, 
                    "type": "String"
                }, 
                {
                    "modifiers": [
                        "public"
                    ], 
                    "name": "Appointmenttype", 
                    "visibility": "PUBLIC", 
                    "references": [], 
                    "location": {
                        "column": 23, 
                        "line": 156
                    }, 
                    "type": "String"
                }, 
                {
                    "modifiers": [
                        "public"
                    ], 
                    "name": "locationId", 
                    "visibility": "PUBLIC", 
                    "references": [], 
                    "location": {
                        "column": 23, 
                        "line": 157
                    }, 
                    "type": "String"
                }, 
                {
                    "modifiers": [
                        "public"
                    ], 
                    "name": "CategoryId", 
                    "visibility": "PUBLIC", 
                    "references": [], 
                    "location": {
                        "column": 23, 
                        "line": 158
                    }, 
                    "type": "String"
                }, 
                {
                    "modifiers": [
                        "public"
                    ], 
                    "name": "AppointmenttypeId", 
                    "visibility": "PUBLIC", 
                    "references": [], 
                    "location": {
                        "column": 23, 
                        "line": 159
                    }, 
                    "type": "String"
                }, 
                {
                    "modifiers": [
                        "public"
                    ], 
                    "name": "ServiceproviderId", 
                    "visibility": "PUBLIC", 
                    "references": [], 
                    "location": {
                        "column": 23, 
                        "line": 160
                    }, 
                    "type": "String"
                }, 
                {
                    "modifiers": [
                        "public"
                    ], 
                    "name": "addeddate", 
                    "visibility": "PUBLIC", 
                    "references": [], 
                    "location": {
                        "column": 23, 
                        "line": 161
                    }, 
                    "type": "String"
                }, 
                {
                    "modifiers": [
                        "public"
                    ], 
                    "name": "Des", 
                    "visibility": "PUBLIC", 
                    "references": [], 
                    "location": {
                        "column": 23, 
                        "line": 162
                    }, 
                    "type": "String"
                }, 
                {
                    "modifiers": [
                        "public"
                    ], 
                    "name": "relid", 
                    "visibility": "PUBLIC", 
                    "references": [], 
                    "location": {
                        "column": 23, 
                        "line": 163
                    }, 
                    "type": "String"
                }, 
                {
                    "modifiers": [
                        "public"
                    ], 
                    "name": "relname", 
                    "visibility": "PUBLIC", 
                    "references": [], 
                    "location": {
                        "column": 23, 
                        "line": 164
                    }, 
                    "type": "String"
                }, 
                {
                    "modifiers": [
                        "public"
                    ], 
                    "name": "relconno", 
                    "visibility": "PUBLIC", 
                    "references": [], 
                    "location": {
                        "column": 23, 
                        "line": 165
                    }, 
                    "type": "String"
                }, 
                {
                    "modifiers": [
                        "public"
                    ], 
                    "name": "relemail", 
                    "visibility": "PUBLIC", 
                    "references": [], 
                    "location": {
                        "column": 23, 
                        "line": 166
                    }, 
                    "type": "String"
                }
            ], 
            "externalReferences": [], 
            "innerClasses": [], 
            "interfaces": [], 
            "constructors": [
                {
                    "modifiers": [
                        "public"
                    ], 
                    "name": "eventwrapper", 
                    "parameters": [
                        {
                            "type": "Event", 
                            "name": "ev"
                        }
                    ], 
                    "visibility": "PUBLIC", 
                    "references": [], 
                    "location": {
                        "column": 16, 
                        "line": 167
                    }, 
                    "type": null
                }
            ], 
            "namespace": null, 
            "name": "eventwrapper", 
            "tableDeclaration": {
                "type": "eventwrapper", 
                "modifiers": [
                    "public"
                ], 
                "references": [], 
                "location": {
                    "column": 18, 
                    "line": 149
                }, 
                "name": "eventwrapper"
            }, 
            "key": null, 
            "variables": [
                {
                    "type": "Event", 
                    "modifiers": [], 
                    "references": [], 
                    "location": {
                        "column": 35, 
                        "line": 167
                    }, 
                    "name": "ev"
                }, 
                {
                    "type": "Boolean", 
                    "modifiers": [], 
                    "references": [], 
                    "location": {
                        "column": 21, 
                        "line": 169
                    }, 
                    "name": "checkForAnyCase"
                }, 
                {
                    "type": "Contact", 
                    "modifiers": [], 
                    "references": [], 
                    "location": {
                        "column": 21, 
                        "line": 170
                    }, 
                    "name": "ConRecSP"
                }, 
                {
                    "type": "String", 
                    "modifiers": [], 
                    "references": [], 
                    "location": {
                        "column": 20, 
                        "line": 171
                    }, 
                    "name": "whoid"
                }, 
                {
                    "type": "EventRelation", 
                    "modifiers": [], 
                    "references": [], 
                    "location": {
                        "column": 36, 
                        "line": 199
                    }, 
                    "name": "evr"
                }, 
                {
                    "type": "Contact", 
                    "modifiers": [], 
                    "references": [], 
                    "location": {
                        "column": 33, 
                        "line": 203
                    }, 
                    "name": "ConRecCust"
                }, 
                {
                    "type": "Datetime", 
                    "modifiers": [], 
                    "references": [], 
                    "location": {
                        "column": 40, 
                        "line": 216
                    }, 
                    "name": "cdate"
                }, 
                {
                    "type": "Date", 
                    "modifiers": [], 
                    "references": [], 
                    "location": {
                        "column": 18, 
                        "line": 218
                    }, 
                    "name": "myDate"
                }, 
                {
                    "type": "String", 
                    "modifiers": [], 
                    "references": [], 
                    "location": {
                        "column": 20, 
                        "line": 219
                    }, 
                    "name": "StrmyDate"
                }, 
                {
                    "type": "Id", 
                    "modifiers": [], 
                    "references": [], 
                    "location": {
                        "column": 38, 
                        "line": 231
                    }, 
                    "name": "relid"
                }, 
                {
                    "type": "Contact", 
                    "modifiers": [], 
                    "references": [], 
                    "location": {
                        "column": 21, 
                        "line": 233
                    }, 
                    "name": "cont"
                }
            ], 
            "id": null, 
            "methods": [
                {
                    "modifiers": [
                        "public"
                    ], 
                    "name": "getdate", 
                    "parameters": [
                        {
                            "type": "Datetime", 
                            "name": "cdate"
                        }
                    ], 
                    "visibility": "PUBLIC", 
                    "references": [], 
                    "location": {
                        "column": 23, 
                        "line": 216
                    }, 
                    "returnType": "String", 
                    "type": null
                }, 
                {
                    "modifiers": [
                        "public"
                    ], 
                    "name": "getcontact", 
                    "parameters": [
                        {
                            "type": "Id", 
                            "name": "relid"
                        }
                    ], 
                    "visibility": "PUBLIC", 
                    "references": [], 
                    "location": {
                        "column": 24, 
                        "line": 231
                    }, 
                    "returnType": "Contact", 
                    "type": null
                }
            ]
        }
    ], 
    "interfaces": [], 
    "constructors": [], 
    "namespace": null, 
    "name": "ViewWaitListController", 
    "tableDeclaration": {
        "type": "ViewWaitListController", 
        "modifiers": [
            "public", 
            "with sharing"
        ], 
        "references": [], 
        "location": {
            "column": 27, 
            "line": 7
        }, 
        "name": "ViewWaitListController"
    }, 
    "key": "01p28000005Z6TIAA0", 
    "variables": [
        {
            "type": "Set", 
            "modifiers": [], 
            "references": [], 
            "location": {
                "column": 21, 
                "line": 117
            }, 
            "name": "setids"
        }, 
        {
            "type": "Event", 
            "modifiers": [], 
            "references": [], 
            "location": {
                "column": 27, 
                "line": 120
            }, 
            "name": "ev"
        }, 
        {
            "type": "EventRelation", 
            "modifiers": [], 
            "references": [], 
            "location": {
                "column": 39, 
                "line": 122
            }, 
            "name": "related"
        }, 
        {
            "type": "Event", 
            "modifiers": [], 
            "references": [], 
            "location": {
                "column": 27, 
                "line": 135
            }, 
            "name": "ev"
        }, 
        {
            "type": "LIST", 
            "modifiers": [], 
            "references": [], 
            "location": {
                "column": 82, 
                "line": 18
            }, 
            "name": "listofevents"
        }, 
        {
            "type": "String", 
            "modifiers": [], 
            "references": [], 
            "location": {
                "column": 16, 
                "line": 20
            }, 
            "name": "jsonformattedlist"
        }, 
        {
            "type": "String", 
            "modifiers": [], 
            "references": [], 
            "location": {
                "column": 16, 
                "line": 21
            }, 
            "name": "str"
        }, 
        {
            "type": "Set", 
            "modifiers": [], 
            "references": [], 
            "location": {
                "column": 22, 
                "line": 25
            }, 
            "name": "setids"
        }, 
        {
            "type": "Event", 
            "modifiers": [], 
            "references": [], 
            "location": {
                "column": 27, 
                "line": 28
            }, 
            "name": "ev"
        }, 
        {
            "type": "EventRelation", 
            "modifiers": [], 
            "references": [], 
            "location": {
                "column": 39, 
                "line": 30
            }, 
            "name": "related"
        }, 
        {
            "type": "Event", 
            "modifiers": [], 
            "references": [], 
            "location": {
                "column": 27, 
                "line": 43
            }, 
            "name": "ev"
        }, 
        {
            "type": "String", 
            "modifiers": [], 
            "references": [], 
            "location": {
                "column": 16, 
                "line": 62
            }, 
            "name": "str"
        }, 
        {
            "type": "String", 
            "modifiers": [], 
            "references": [], 
            "location": {
                "column": 16, 
                "line": 63
            }, 
            "name": "str1"
        }, 
        {
            "type": "Set", 
            "modifiers": [], 
            "references": [], 
            "location": {
                "column": 21, 
                "line": 75
            }, 
            "name": "setids"
        }, 
        {
            "type": "Event", 
            "modifiers": [], 
            "references": [], 
            "location": {
                "column": 27, 
                "line": 78
            }, 
            "name": "ev"
        }, 
        {
            "type": "EventRelation", 
            "modifiers": [], 
            "references": [], 
            "location": {
                "column": 39, 
                "line": 80
            }, 
            "name": "related"
        }, 
        {
            "type": "Event", 
            "modifiers": [], 
            "references": [], 
            "location": {
                "column": 27, 
                "line": 93
            }, 
            "name": "ev"
        }
    ], 
    "id": "01p28000005Z6TIAA0", 
    "methods": [
        {
            "modifiers": [
                "public"
            ], 
            "name": "geteventwrapperlist", 
            "parameters": [], 
            "visibility": "PUBLIC", 
            "references": [], 
            "location": {
                "column": 31, 
                "line": 108
            }, 
            "returnType": "LIST", 
            "type": null
        }, 
        {
            "modifiers": [
                "static", 
                "public"
            ], 
            "name": "getFilteredeventwrapperlistjson", 
            "parameters": [
                {
                    "type": "LIST", 
                    "name": "listofevents"
                }
            ], 
            "visibility": "PUBLIC", 
            "references": [], 
            "location": {
                "column": 38, 
                "line": 18
            }, 
            "returnType": "LIST", 
            "type": null
        }, 
        {
            "modifiers": [
                "static", 
                "public"
            ], 
            "name": "geteventwrapperlistjson", 
            "parameters": [], 
            "visibility": "PUBLIC", 
            "references": [], 
            "location": {
                "column": 26, 
                "line": 60
            }, 
            "returnType": "String", 
            "type": null
        }
    ]
}